{
    "product_name": "bankaccount-testing-v7",
    "features": [
        "bankaccount"
    ],
    "roles": {
        "administrator": [
            "ichlaffterlalu@gmail.com",
            "ichlasul.affan@gmail.com"
        ],
        "manager": [
            "ichlaffterlalu@gmail.com",
            "ichlasul.affan@ui.ac.id"
        ],
        "operator": [
            "ichlasul.affan@ui.ac.id",
            "ilhamperuzzi@gmail.com"
        ],
        "reporter": [
            "hafiyyan94@gmail.com",
            "ichlaffterlalu@gmail.com"
        ]
    },
    "enable_login": true,
    "ports": {
        "frontend": 4200,
        "backend": 8081,
        "nginx": 55577
    },
    "domain_name": "localhost",
    "full_product_address": "http://localhost:55577"
}